…
## Examples

``` r
data(iowa)

iowa_map <- redist_map(iowa, existing_plan = cd_2010, pop_tol = 0.05)
plans <- redist_smc(iowa_map, 100, silent = TRUE)
match_numbers(plans, "cd_2010")
#> A <redist_plans> containing 100 sampled plans and 1 reference plan
#> Plans have 4 districts from a 99-unit map, and were drawn using Sequential
#> Monte Carlo.
#> With plans resampled from weights
#> Plans matrix: int [1:99, 1:101] 1 1 2 3 4 2 2 4 2 2 ...
#> # A tibble: 404 × 4
#>    draw    district total_pop pop_overlap
#>    <fct>   <ord>        <dbl>       <dbl>
#>  1 cd_2010 1           761612       1    
#>  2 cd_2010 2           761548       1    
#>  3 cd_2010 3           761624       1    
#>  4 cd_2010 4           761571       1    
#>  5 1       1           758881       0.657
#>  6 1       2           741379       0.657
#>  7 1       3           796636       0.657
#>  8 1       4           749459       0.657
#>  9 2       1           790031       0.824
#> 10 2       2           724485       0.824
#> # ℹ 394 more rows
```
