…
#>    15     🥳     0.810811
#>    20            0.810811
#>    25            0.810811
#>    30            0.810811
#>    35            0.810811
#>    36     🙂     0.819820
#>    40            0.819820
#>    44     😀     0.824324
#>    45            0.824324
#>    46     🎇     0.828829
#>    50            0.828829
#> A <redist_plans> containing 50 sampled plans and 1 reference plan
#> Plans have 4 districts from a 99-unit map, and were drawn using short bursts.
#> Plans matrix: int [1:99, 1:51] 1 1 2 3 4 2 2 4 2 2 ...
#> # A tibble: 204 × 5
#>    draw   district total_pop score burst_size
#>    <fct>     <int>     <dbl> <dbl>      <int>
#>  1 <init>        1    761612 0.788         NA
#>  2 <init>        2    761548 0.788         NA
#>  3 <init>        3    761624 0.788         NA
#>  4 <init>        4    761571 0.788         NA
#>  5 1             1    761612 0.788         10
#>  6 1             2    761548 0.788         10
#>  7 1             3    761624 0.788         10
#>  8 1             4    761571 0.788         10
#>  9 2             1    761612 0.788         10
#> 10 2             2    761548 0.788         10
#> # ℹ 194 more rows
…
#>    19     🌈     0.265766
#>    20            0.265766
#>    23     🙂     0.274775
#>    25            0.274775
#>    30            0.274775
#>    35            0.274775
#>    37     😎     0.279279
#>    38     🎉     0.288288
#>    40            0.288288
#>    45            0.288288
#>    50            0.288288
#> A <redist_plans> containing 50 sampled plans and 1 reference plan
#> Plans have 4 districts from a 99-unit map, and were drawn using short bursts.
#> Plans matrix: int [1:99, 1:51] 1 1 2 3 4 2 2 4 2 2 ...
#> # A tibble: 204 × 5
#>    draw   district total_pop score burst_size
#>    <fct>     <int>     <dbl> <dbl>      <int>
#>  1 <init>        1    761612 0.212         NA
#>  2 <init>        2    761548 0.212         NA
#>  3 <init>        3    761624 0.212         NA
#>  4 <init>        4    761571 0.212         NA
#>  5 1             1    761612 0.212         10
#>  6 1             2    761548 0.212         10
#>  7 1             3    761624 0.212         10
#>  8 1             4    761571 0.212         10
#>  9 2             1    761612 0.212         10
#> 10 2             2    761548 0.212         10
#> # ℹ 194 more rows
…
