Introduction to gredist • gredist
…
iowa_map = redist_map(iowa, existing_plan=cd_2010, pop_tol=0.01, total_pop = pop)
print(iowa_map)
#> A <redist_map> with 99 units and 17 fields
#> To be partitioned into 4 districts with population between 761,588.8 - 1.0% and 761,588.8 + 1.0%
#> With geometry:
#>     bbox:           xmin: 4081849 ymin: 2879102 xmax: 5834228 ymax: 4024957
#>     projected CRS:  NAD83(HARN) / Iowa North (ftUS)
#> # A tibble: 99 × 17
#>    fips  name  cd_2010    pop  white black  hisp    vap  wvap  bvap  hvap tot_08
#>  * <chr> <chr>   <int>  <dbl>  <dbl> <dbl> <dbl>  <dbl> <dbl> <dbl> <dbl>  <dbl>
#>  1 19001 Adair       3   7682   7507    11   101   5957  5860     5    53   4053
#>  2 19003 Adams       3   4029   3922     8    37   3180  3109     6    22   2206
#>  3 19005 Alla…       1  14330  13325   109   757  11020 10430    82   425   7059
#>  4 19007 Appa…       2  12887  12470    55   181   9993  9745    40    99   6176
#>  5 19009 Audu…       4   6119   6007     9    37   4780  4714     5    27   3435
#>  6 19011 Bent…       1  26076  25387    93   275  19430 19068    49   155  13712
#>  7 19013 Blac…       1 131090 109968 11493  4907 102594 89541  7677  2865  64775
#>  8 19015 Boone       4  26306  25194   202   505  20027 19448   103   260  13929
#>  9 19017 Brem…       1  24276  23459   186   239  18763 18242   155   137  12871
#> 10 19019 Buch…       1  20958  20344    59   243  15282 14979    32   128  10338
#> # ℹ 89 more rows
#> # ℹ 5 more variables: dem_08 <dbl>, rep_08 <dbl>, region <chr>,
#> #   geometry <MULTIPOLYGON [US_survey_foot]>, adj <list>
…
The output from the algorithm is a redist_plans object,
which stores a matrix of district assignments for each precinct and
simulated plans, and a table of summary statistics for each district and
simulated plan. The existing 2010 plan has also been automatically added
as a reference plan. Additional reference or comparison plans may be
added using add_reference().

print(iowa_plans)
#> A <redist_plans> containing 1,000 sampled plans and 1 reference plan
#> Plans have 4 districts from a 99-unit map, and were drawn using Sequential
#> Monte Carlo.
#> With plans resampled from weights
#> Plans matrix: int [1:99, 1:1001] 1 1 2 3 4 2 2 4 2 2 ...
#> # A tibble: 4,004 × 4
#>    draw    district total_pop chain
#>    <fct>      <int>     <dbl> <int>
#>  1 cd_2010        1    761612    NA
#>  2 cd_2010        2    761548    NA
#>  3 cd_2010        3    761624    NA
#>  4 cd_2010        4    761571    NA
#>  5 1              1    760836     1
#>  6 1              2    757367     1
#>  7 1              3    762946     1
#>  8 1              4    765206     1
#>  9 2              1    756071     1
#> 10 2              2    765242     1
#> # ℹ 3,994 more rows
…
Sometimes it may be useful to renumber the simulated districts (which
have random numbers in general) to match the reference plan as closely
as possible. This adds a pop_overlap column which measures
how much of the population is in the same district in both a given plan
and the reference plan.

iowa_plans = match_numbers(iowa_plans, iowa_map$cd_2010)
print(iowa_plans)
#> A <redist_plans> containing 1,000 sampled plans and 1 reference plan
#> Plans have 4 districts from a 99-unit map, and were drawn using Sequential
#> Monte Carlo.
#> With plans resampled from weights
#> Plans matrix: int [1:99, 1:1001] 3 3 1 2 4 1 1 4 1 1 ...
#> # A tibble: 4,004 × 5
#>    draw    district total_pop chain pop_overlap
#>    <fct>   <ord>        <dbl> <int>       <dbl>
#>  1 cd_2010 1           761548    NA       1    
#>  2 cd_2010 2           761624    NA       1    
#>  3 cd_2010 3           761612    NA       1    
#>  4 cd_2010 4           761571    NA       1    
#>  5 1       1           765206     1       0.875
#>  6 1       2           762946     1       0.875
#>  7 1       3           757367     1       0.875
#>  8 1       4           760836     1       0.875
#>  9 2       1           756071     1       0.691
#> 10 2       2           765242     1       0.691
#> # ℹ 3,994 more rows
…
county_perims = prep_perims(iowa_map, iowa_map$adj)

iowa_plans = iowa_plans %>%
    mutate(pop_dev = abs(total_pop / get_target(iowa_map) - 1),
           comp = comp_polsby(pl(), iowa_map, perim_df=county_perims),
           pct_min = group_frac(iowa_map, vap - wvap, vap),
           pct_dem = group_frac(iowa_map, dem_08, dem_08 + rep_08))
print(iowa_plans)
#> With plans resampled from weights
#> Plans matrix: int [1:99, 1:1001] 3 3 1 2 4 1 1 4 1 1 ...
#> # A tibble: 4,004 × 9
#>    draw    district total_pop chain pop_overlap   pop_dev  comp pct_min pct_dem
#>    <fct>   <ord>        <dbl> <int>       <dbl>     <dbl> <dbl>   <dbl>   <dbl>
#>  1 cd_2010 1           761548    NA       1     0.0000535 0.302  0.0737   0.592
#>  2 cd_2010 2           761624    NA       1     0.0000463 0.360  0.0968   0.579
#>  3 cd_2010 3           761612    NA       1     0.0000305 0.529  0.114    0.531
#>  4 cd_2010 4           761571    NA       1     0.0000233 0.522  0.0788   0.491
#>  5 1       1           765206     1       0.875 0.00475   0.468  0.0665   0.594
#>  6 1       2           762946     1       0.875 0.00178   0.439  0.0963   0.579
#>  7 1       3           757367     1       0.875 0.00554   0.247  0.118    0.541
#>  8 1       4           760836     1       0.875 0.000988  0.588  0.0831   0.477
#>  9 2       1           756071     1       0.691 0.00725   0.481  0.0791   0.594
#> 10 2       2           765242     1       0.691 0.00480   0.274  0.0895   0.585
#> # ℹ 3,994 more rows
…
plan_sum = group_by(iowa_plans, draw) %>%
    summarize(max_dev = max(pop_dev),
              avg_comp = mean(comp),
              max_pct_min = max(pct_min),
              dem_distr = sum(pct_dem > 0.5))
print(plan_sum)
#> A <redist_plans> containing 1,000 sampled plans and 1 reference plan
#> Plans have 4 districts from a 99-unit map, and were drawn using Sequential
#> Monte Carlo.
#> With plans resampled from weights
#> Plans matrix: int [1:99, 1:1001] 3 3 1 2 4 1 1 4 1 1 ...
#> # A tibble: 1,001 × 5
#>    draw      max_dev avg_comp max_pct_min dem_distr
#>    <fct>       <dbl>    <dbl>       <dbl>     <int>
#>  1 cd_2010 0.0000535    0.428       0.114         3
#>  2 1       0.00554      0.435       0.118         3
#>  3 2       0.00725      0.413       0.113         3
#>  4 3       0.00997      0.330       0.128         3
#>  5 4       0.00457      0.365       0.121         3
#>  6 5       0.00894      0.508       0.115         3
#>  7 6       0.00889      0.406       0.119         3
#>  8 7       0.00562      0.350       0.117         3
#>  9 8       0.00921      0.407       0.110         3
#> 10 9       0.00984      0.375       0.119         3
#> # ℹ 991 more rows
…
