Flip Constraints Helper — flip_constraints_helper • redist
…
#> Metropolis acceptance ratio: 1.16667
#> 
#> 80 percent done.
#> Metropolis acceptance ratio: 1.14286
#> 
#> 90 percent done.
#> Metropolis acceptance ratio: 1.125
#> 
#> 100 percent done.
#> Metropolis acceptance ratio: 1.11111
#> 
#> 10 sampled plans and 1 reference plan with 4 districts from a 99-unit map,
#>   drawn using an unknown algorithm
#> Plans matrix: num [1:99, 1:11] 3 3 1 2 4 1 1 4 1 1 ...
#> # A tibble: 44 × 14
#>    draw    district total_pop distance_parity distance_origin… mhdecisions mhprob
#>    <fct>      <int>     <dbl>           <dbl>            <dbl>       <dbl>  <dbl>
#>  1 cd_2010        1    761548        NA                 NA              NA NA    
#>  2 cd_2010        2    761624        NA                 NA              NA NA    
#>  3 cd_2010        3    761612        NA                 NA              NA NA    
#>  4 cd_2010        4    761571        NA                 NA              NA NA    
#>  5 1              1    761548         0.00678            0.990           1  0.952
#>  6 1              2    766755         0.00678            0.990           1  0.952
#>  7 1              3    756481         0.00678            0.990           1  0.952
#>  8 1              4    761571         0.00678            0.990           1  0.952
#>  9 2              1    761548         0.00806            0.980           1  1.00 
#> 10 2              2    766755         0.00806            0.980           1  1.00 
#> # … with 34 more rows, and 7 more variables: pparam <dbl>, beta_sequence <dbl>,
#> #   energy_psi <dbl>, boundary_partitions <dbl>, boundary_ratio <dbl>,
#> #   constraint_compact <dbl>, constraint_vra <dbl>
…
