Renumber districts to match an existing plan — match_numbers • redist
…
    Examples

data(iowa)

iowa_map = redist_map(iowa, existing_plan=cd_2010, pop_tol=0.05)
plans = redist_smc(iowa_map, 100, silent=TRUE)
match_numbers(plans, "cd_2010")
#> A <redist_plans> containing 100 sampled plans and 1 reference plan
#> Plans have 4 districts from a 99-unit map, and were drawn using Sequential
#> Monte Carlo.
#> With plans resampled from weights
#> Plans matrix: int [1:99, 1:101] 3 3 1 2 4 1 1 4 1 1 ...
#> # A tibble: 404 × 4
#>    draw    district total_pop pop_overlap
#>    <fct>   <ord>        <dbl>       <dbl>
#>  1 cd_2010 1           761548       1    
#>  2 cd_2010 2           761624       1    
#>  3 cd_2010 3           761612       1    
#>  4 cd_2010 4           761571       1    
#>  5 1       1           763126       0.604
#>  6 1       2           769595       0.604
#>  7 1       3           782420       0.604
#>  8 1       4           731214       0.604
#>  9 2       1           781615       0.738
#> 10 2       2           743759       0.738
#> # … with 394 more rows
…
