Calculate gerrymandering metrics for a set of plans — partisan_metrics • redist
…
    Examples

data(fl25)
data(fl25_enum)
plans_05 <- fl25_enum$plans[, fl25_enum$pop_dev <= 0.05]
redist.metrics(plans_05, measure = 'all', rvote = fl25$mccain, dvote = fl25$obama)
#> redist 4.0.0 aligned pro-Republican biases as positive numbers, reversing the
#> old Efficiency Gap direction.
#> This message is displayed once per session.
#> redistmetrics 1.0.2 reverses tau gap direction. Positive is now pro-Republican
#> bias.
#> This message is displayed once per session.
#> # A tibble: 576 × 15
#>    district DSeats   DVS EffGap EffGapEqPop TauGap MeanMedian   Bias  BiasV
#>       <int>  <int> <dbl>  <dbl>       <dbl>  <dbl>      <dbl>  <dbl>  <dbl>
#>  1        1      0 0.371  0.371       0.350  0.915  -0.0175   -0.167 -0.167
#>  2        2      0 0.462  0.371       0.350  0.915  -0.0175   -0.167 -0.167
#>  3        3      0 0.443  0.371       0.350  0.915  -0.0175   -0.167 -0.167
#>  4        1      0 0.376  0.371       0.348  0.917  -0.0186   -0.167 -0.167
#>  5        2      0 0.453  0.371       0.348  0.917  -0.0186   -0.167 -0.167
#>  6        3      0 0.443  0.371       0.348  0.917  -0.0186   -0.167 -0.167
#>  7        1      0 0.378  0.371       0.347  0.913   0.000757  0.167  0.167
#>  8        2      0 0.469  0.371       0.347  0.913   0.000757  0.167  0.167
#>  9        3      0 0.423  0.371       0.347  0.913   0.000757  0.167  0.167
#> 10        1      0 0.378  0.371       0.348  0.917  -0.00879  -0.167 -0.167
#> # … with 566 more rows, and 6 more variables: Declination <dbl>,
#> #   Responsiveness <dbl>, LopsidedWins <dbl>, RankedMarginal <dbl>,
#> #   SmoothedSeat <dbl>, draw <dbl>
…
