Redistricting Optimization through Short Bursts — redist_shortburst • redist
…
#>     8     ⛄     0.833333
#>    10     🌈     0.842342
#>    11     😎     0.846847
#>    15            0.846847
#>    20            0.846847
#>    25            0.846847
#>    30            0.846847
#>    35            0.846847
#>    40            0.846847
#>    45            0.846847
#>    50            0.846847
#> A <redist_plans> containing 50 sampled plans and 1 reference plan
#> Plans have 4 districts from a 99-unit map, and were drawn using short bursts.
#> Plans matrix: int [1:99, 1:51] 3 3 1 2 4 1 1 4 1 1 ...
#> # A tibble: 204 × 4
#>    draw   district total_pop score
#>    <fct>     <int>     <dbl> <dbl>
#>  1 <init>        1    761548 0.811
#>  2 <init>        2    761624 0.811
#>  3 <init>        3    761612 0.811
#>  4 <init>        4    761571 0.811
#>  5 1             1    754497 0.811
#>  6 1             2    761624 0.811
#>  7 1             3    761612 0.811
#>  8 1             4    768622 0.811
#>  9 2             1    754497 0.811
#> 10 2             2    761624 0.811
#> # … with 194 more rows
…
#>     8     🥳     0.288288
#>    10            0.288288
#>    14     🎆     0.301802
#>    15            0.301802
#>    20            0.301802
#>    25            0.301802
#>    30            0.301802
#>    35            0.301802
#>    40            0.301802
#>    45            0.301802
#>    50            0.301802
#> A <redist_plans> containing 50 sampled plans and 1 reference plan
#> Plans have 4 districts from a 99-unit map, and were drawn using short bursts.
#> Plans matrix: int [1:99, 1:51] 3 3 1 2 4 1 1 4 1 1 ...
#> # A tibble: 204 × 4
#>    draw   district total_pop score
#>    <fct>     <int>     <dbl> <dbl>
#>  1 <init>        1    761548 0.212
#>  2 <init>        2    761624 0.212
#>  3 <init>        3    761612 0.212
#>  4 <init>        4    761571 0.212
#>  5 1             1    761548 0.212
#>  6 1             2    761624 0.212
#>  7 1             3    761612 0.212
#>  8 1             4    761571 0.212
#>  9 2             1    764373 0.243
#> 10 2             2    763930 0.243
#> # … with 194 more rows
…
