SMC Redistricting Sampler — redist_smc • redist
…
# Multiple parallel independent runs
redist_smc(fl_map, 1000, runs = 2)
#> A <redist_plans> containing 2000 sampled plans
#> Plans have 3 districts from a 25-unit map, and were drawn using Sequential
#> Monte Carlo.
#> With plans resampled from weights
#> Plans matrix: int [1:25, 1:2000] 1 2 2 2 2 1 3 3 1 3 ...
#> # A tibble: 6,000 × 4
#>    draw  chain district total_pop
#>    <fct> <int>    <int>     <dbl>
#>  1 1         1        1     61174
#>  2 1         1        2     58845
#>  3 1         1        3     55024
#>  4 2         1        1     52653
#>  5 2         1        2     58683
#>  6 2         1        3     63707
#>  7 3         1        1     54547
#>  8 3         1        2     59480
#>  9 3         1        3     61016
#> 10 4         1        1     58164
#> # … with 5,990 more rows

# One run with multiple cores
redist_smc(fl_map, 1000, ncores = 2)
#> SEQUENTIAL MONTE CARLO
#> Sampling 1,000 25-unit maps with 3 districts and population between 52,513 and 64,182.
#> Split [0/2] ■                                | ETA?
#> Split [2/2] ■■■■■■■■■■■■■■■■■■■■■■■■■■■■■■■  | ETA 0s
#> 
#> A <redist_plans> containing 1000 sampled plans
#> Plans have 3 districts from a 25-unit map, and were drawn using Sequential
#> Monte Carlo.
#> With plans resampled from weights
#> Plans matrix: int [1:25, 1:1000] 1 2 2 2 3 2 3 3 1 3 ...
#> # A tibble: 3,000 × 3
#>    draw  district total_pop
#>  * <fct>    <int>     <dbl>
#>  1 1            1     58683
#>  2 1            2     62770
#>  3 1            3     53590
#>  4 2            1     55024
#>  5 2            2     58845
#>  6 2            3     61174
#>  7 3            1     61214
#>  8 3            2     58845
#>  9 3            3     54984
#> 10 4            1     52653
#> # … with 2,990 more rows
…
