…
``` r
iowa_map = redist_map(iowa, existing_plan=cd_2010, pop_tol=0.01, total_pop = pop)
print(iowa_map)
#> A <redist_map> with 99 units and 17 fields
#> To be partitioned into 4 districts with population between 761,588.8 - 1.0% and 761,588.8 + 1.0%
#> With geometry:
#>     bbox:           xmin: 4081849 ymin: 2879102 xmax: 5834228 ymax: 4024957
#>     projected CRS:  NAD83(HARN) / Iowa North (ftUS)
#> # A tibble: 99 × 17
#>    fips  name  cd_2010    pop  white black  hisp    vap  wvap  bvap  hvap tot_08
#>  * <chr> <chr>   <int>  <dbl>  <dbl> <dbl> <dbl>  <dbl> <dbl> <dbl> <dbl>  <dbl>
#>  1 19001 Adair       3   7682   7507    11   101   5957  5860     5    53   4053
#>  2 19003 Adams       3   4029   3922     8    37   3180  3109     6    22   2206
#>  3 19005 Alla…       1  14330  13325   109   757  11020 10430    82   425   7059
#>  4 19007 Appa…       2  12887  12470    55   181   9993  9745    40    99   6176
#>  5 19009 Audu…       4   6119   6007     9    37   4780  4714     5    27   3435
#>  6 19011 Bent…       1  26076  25387    93   275  19430 19068    49   155  13712
#>  7 19013 Blac…       1 131090 109968 11493  4907 102594 89541  7677  2865  64775
#>  8 19015 Boone       4  26306  25194   202   505  20027 19448   103   260  13929
#>  9 19017 Brem…       1  24276  23459   186   239  18763 18242   155   137  12871
#> 10 19019 Buch…       1  20958  20344    59   243  15282 14979    32   128  10338
#> # ℹ 89 more rows
#> # ℹ 5 more variables: dem_08 <dbl>, rep_08 <dbl>, region <chr>,
#> #   geometry <MULTIPOLYGON [US_survey_foot]>, adj <list>
```
…
The output from the algorithm is a `redist_plans` object, which stores a
matrix of district assignments for each precinct and simulated plans,
and a table of summary statistics for each district and simulated plan.
The existing 2010 plan has also been automatically added as a reference
plan. Additional reference or comparison plans may be added using
[`add_reference()`](http://alarm-redist.org/redist/reference/add_reference.md).

``` r
print(iowa_plans)
#> A <redist_plans> containing 1,000 sampled plans and 1 reference plan
#> Plans have 4 districts from a 99-unit map, and were drawn using Sequential
#> Monte Carlo.
#> With plans resampled from weights
#> Plans matrix: int [1:99, 1:1001] 1 1 2 3 4 2 2 4 2 2 ...
#> # A tibble: 4,004 × 4
#>    draw    district total_pop chain
#>    <fct>      <int>     <dbl> <int>
#>  1 cd_2010        1    761612    NA
#>  2 cd_2010        2    761548    NA
#>  3 cd_2010        3    761624    NA
#>  4 cd_2010        4    761571    NA
#>  5 1              1    759274     1
#>  6 1              2    763216     1
#>  7 1              3    755788     1
#>  8 1              4    768077     1
#>  9 2              1    759558     1
#> 10 2              2    761089     1
#> # ℹ 3,994 more rows
```
…
Sometimes it may be useful to renumber the simulated districts (which
have random numbers in general) to match the reference plan as closely
as possible. This adds a `pop_overlap` column which measures how much of
the population is in the same district in both a given plan and the
reference plan.

``` r
iowa_plans = match_numbers(iowa_plans, iowa_map$cd_2010)
print(iowa_plans)
#> A <redist_plans> containing 1,000 sampled plans and 1 reference plan
#> Plans have 4 districts from a 99-unit map, and were drawn using Sequential
#> Monte Carlo.
#> With plans resampled from weights
#> Plans matrix: int [1:99, 1:1001] 3 3 1 2 4 1 1 4 1 1 ...
#> # A tibble: 4,004 × 5
#>    draw    district total_pop chain pop_overlap
#>    <fct>   <ord>        <dbl> <int>       <dbl>
#>  1 cd_2010 1           761548    NA       1    
#>  2 cd_2010 2           761624    NA       1    
#>  3 cd_2010 3           761612    NA       1    
#>  4 cd_2010 4           761571    NA       1    
#>  5 1       1           768077     1       0.738
#>  6 1       2           763216     1       0.738
#>  7 1       3           755788     1       0.738
#>  8 1       4           759274     1       0.738
#>  9 2       1           766367     1       0.639
#> 10 2       2           761089     1       0.639
#> # ℹ 3,994 more rows
```
…
``` r
county_perims = prep_perims(iowa_map, iowa_map$adj)

iowa_plans = iowa_plans %>%
    mutate(pop_dev = abs(total_pop / get_target(iowa_map) - 1),
           comp = comp_polsby(pl(), iowa_map, perim_df=county_perims),
           pct_min = group_frac(iowa_map, vap - wvap, vap),
           pct_dem = group_frac(iowa_map, dem_08, dem_08 + rep_08))
print(iowa_plans)
#> With plans resampled from weights
#> Plans matrix: int [1:99, 1:1001] 3 3 1 2 4 1 1 4 1 1 ...
#> # A tibble: 4,004 × 9
#>    draw    district total_pop chain pop_overlap   pop_dev  comp pct_min pct_dem
#>    <fct>   <ord>        <dbl> <int>       <dbl>     <dbl> <dbl>   <dbl>   <dbl>
#>  1 cd_2010 1           761548    NA       1     0.0000535 0.302  0.0737   0.592
#>  2 cd_2010 2           761624    NA       1     0.0000463 0.360  0.0968   0.579
#>  3 cd_2010 3           761612    NA       1     0.0000305 0.529  0.114    0.531
#>  4 cd_2010 4           761571    NA       1     0.0000233 0.522  0.0788   0.491
#>  5 1       1           768077     1       0.738 0.00852   0.503  0.0646   0.593
#>  6 1       2           763216     1       0.738 0.00214   0.415  0.0955   0.577
#>  7 1       3           755788     1       0.738 0.00762   0.515  0.129    0.563
#>  8 1       4           759274     1       0.738 0.00304   0.428  0.0741   0.456
#>  9 2       1           766367     1       0.639 0.00627   0.402  0.0738   0.577
#> 10 2       2           761089     1       0.639 0.000656  0.246  0.103    0.609
#> # ℹ 3,994 more rows
```
…
``` r
plan_sum = group_by(iowa_plans, draw) %>%
    summarize(max_dev = max(pop_dev),
              avg_comp = mean(comp),
              max_pct_min = max(pct_min),
              dem_distr = sum(pct_dem > 0.5))
print(plan_sum)
#> A <redist_plans> containing 1,000 sampled plans and 1 reference plan
#> Plans have 4 districts from a 99-unit map, and were drawn using Sequential
#> Monte Carlo.
#> With plans resampled from weights
#> Plans matrix: int [1:99, 1:1001] 3 3 1 2 4 1 1 4 1 1 ...
#> # A tibble: 1,001 × 5
#>    draw      max_dev avg_comp max_pct_min dem_distr
#>    <fct>       <dbl>    <dbl>       <dbl>     <int>
#>  1 cd_2010 0.0000535    0.428       0.114         3
#>  2 1       0.00852      0.465       0.129         3
#>  3 2       0.00627      0.379       0.110         3
#>  4 3       0.00290      0.403       0.127         3
#>  5 4       0.00888      0.333       0.122         4
#>  6 5       0.00660      0.371       0.109         3
#>  7 6       0.00697      0.334       0.118         3
#>  8 7       0.00686      0.414       0.111         3
#>  9 8       0.00778      0.445       0.109         3
#> 10 9       0.00361      0.382       0.123         3
#> # ℹ 991 more rows
```
…
